1_RTL/4_COMB_LOGIC/2_ENCODER/interrupt_controller.vcd
$date
    Jun 30, 2026  17:06:18
$end
$version
    TOOL:	xmsim(64)	24.03-s005
$end
$timescale
    1 ps
$end

$scope module tb_interrupt_controller $end
$var reg       8 !    i_int [7:0] $end
$var reg       1 "    i_int_ack $end
$var wire      3 #    o_int_id [2:0] $end
$var wire      1 $    o_int_req  $end

$scope module uut $end
$var wire      8 %    i_int [7:0] $end
$var wire      1 &    i_int_ack  $end
$var reg       3 '    o_int_id [2:0] $end
$var reg       1 (    o_int_req $end
$var reg       8 )    r_active_int [7:0] $end
$upscope $end

$upscope $end

$enddefinitions $end
$dumpvars
b0 !
0"
b0 #
0$
b0 %
0&
b0 '
0(
b0 )
$end
#10000
b1 !
b1 %
b1 )
1(
1$
#20000
b100000 !
b100000 %
0(
b100000 )
b101 '
1(
b101 #
#30000
b10000000 !
b10000000 %
0(
b0 '
b10000000 )
b111 '
1(
b111 #
#40000
1"
1&
0(
b0 '
b0 )
b0 #
0$
#50000
0"
0&
b10000000 )
b111 '
1(
1$
b111 #
#60000
b1000010 !
b1000010 %
0(
b0 '
b1000010 )
b110 '
1(
b110 #
#70000
1"
1&
0(
b0 '
b0 )
b0 #
0$
#80000
0"
0&
b1000010 )
b110 '
1(
1$
b110 #
#90000
b0 !
b0 %
0(
b0 '
b0 )
b0 #
0$
